<svg width="32" height="32" viewBox="0 0 32 32" fill="none" xmlns="http://www.w3.org/2000/svg">
<path d="M29.707 19.293L26.707 16.293C26.6142 16.2001 26.504 16.1264 26.3827 16.0761C26.2614 16.0258 26.1313 15.9999 26 15.9999C25.8687 15.9999 25.7386 16.0258 25.6173 16.0761C25.496 16.1264 25.3858 16.2001 25.293 16.293L16 25.5859V30H20.4141L29.707 20.707C29.7999 20.6142 29.8736 20.5039 29.9239 20.3826C29.9742 20.2613 30 20.1313 30 20C30 19.8687 29.9742 19.7386 29.9239 19.6173C29.8736 19.496 29.7999 19.3858 29.707 19.293ZM19.5859 28H18V26.4141L23 21.4141L24.5859 23L19.5859 28ZM26 21.5859L24.4141 20L26 18.4141L27.5859 20L26 21.5859Z" fill="black"/>
<path d="M18 18V14H20V18H18Z" fill="black"/>
<path d="M14 18V12H16V18H14Z" fill="black"/>
<path d="M10 18V8H12V18H10Z" fill="black"/>
<path d="M12 30H6C5.46974 29.9994 4.96135 29.7886 4.5864 29.4136C4.21145 29.0386 4.00056 28.5303 4 28V4C4.00056 3.46974 4.21145 2.96135 4.5864 2.5864C4.96135 2.21145 5.46974 2.00056 6 2H22C22.5303 2.00056 23.0386 2.21145 23.4136 2.5864C23.7886 2.96135 23.9994 3.46974 24 4V14H22V4H6V28H12V30Z" fill="black"/>
</svg>
