<?xml version="1.0" encoding="UTF-8" standalone="no"?>
<!-- Created with Inkscape (http://www.inkscape.org/) -->

<svg
   width="210mm"
   height="297mm"
   viewBox="0 0 210 297"
   version="1.1"
   id="svg5"
   inkscape:version="1.2.2 (b0a8486541, 2022-12-01)"
   sodipodi:docname="cinema.svg"
   xmlns:inkscape="http://www.inkscape.org/namespaces/inkscape"
   xmlns:sodipodi="http://sodipodi.sourceforge.net/DTD/sodipodi-0.dtd"
   xmlns="http://www.w3.org/2000/svg"
   xmlns:svg="http://www.w3.org/2000/svg">
  <sodipodi:namedview
     id="namedview7"
     pagecolor="#ffffff"
     bordercolor="#666666"
     borderopacity="1.0"
     inkscape:showpageshadow="2"
     inkscape:pageopacity="0.0"
     inkscape:pagecheckerboard="0"
     inkscape:deskcolor="#d1d1d1"
     inkscape:document-units="mm"
     showgrid="false"
     inkscape:current-layer="layer1" />
  <defs
     id="defs2" />
  <g
     inkscape:label="Layer 1"
     inkscape:groupmode="layer"
     id="layer1">
    <rect
       style="font-variation-settings:normal;opacity:1;fill:none;fill-opacity:1;stroke:#000000;stroke-width:5.04130363;stroke-linecap:butt;stroke-linejoin:miter;stroke-miterlimit:4;stroke-dasharray:none;stroke-dashoffset:0;stroke-opacity:1;paint-order:markers fill stroke;stop-color:#000000;stop-opacity:1"
       id="rect111"
       width="131.23305"
       height="74.120033"
       x="40.078777"
       y="45.097973" />
    <rect
       style="font-variation-settings:normal;opacity:1;fill:#ffffff;fill-opacity:1;stroke:none;stroke-width:5.04130363;stroke-linecap:butt;stroke-linejoin:miter;stroke-miterlimit:4;stroke-dasharray:none;stroke-dashoffset:0;stroke-opacity:1;paint-order:markers fill stroke;stop-color:#000000;stop-opacity:1"
       id="rect1254"
       width="31.626213"
       height="41.049835"
       x="35.69009"
       y="40.903797" />
    <path
       style="fill:#ffffff;stroke:#000000;stroke-width:5.04130363;stroke-linecap:butt;stroke-linejoin:miter;stroke-dasharray:none;stroke-opacity:1"
       d="m 4.8439973,120.4969 c 5.2234597,2.71809 12.5633867,2.90214 18.8501047,1.78234 7.348334,-1.30889 6.060761,-15.2814 6.060761,-15.2814 0,0 17.503649,0.90292 20.321468,-3.18948 2.063507,-2.86896 1.505749,-13.094131 1.505749,-13.094131 0,0 10.301967,0.8756 12.940403,-0.80524 4.749295,-3.025595 3.578999,-21.756888 3.821559,-28.632614 -0.05748,-6.604713 -0.447146,-12.580691 -0.04148,-19.181749"
       id="path176"
       sodipodi:nodetypes="cscccscc" />
    <path
       style="font-variation-settings:normal;opacity:1;fill:none;fill-opacity:1;stroke:#000000;stroke-width:5.04130363;stroke-linecap:butt;stroke-linejoin:miter;stroke-miterlimit:4;stroke-dasharray:none;stroke-dashoffset:0;stroke-opacity:1;paint-order:markers fill stroke;stop-color:#000000;stop-opacity:1"
       d="M 29.754864,107.07717 V 42.173959"
       id="path445"
       sodipodi:nodetypes="cc" />
    <path
       style="font-variation-settings:normal;opacity:1;fill:none;fill-opacity:1;stroke:#000000;stroke-width:5.04130363;stroke-linecap:butt;stroke-linejoin:miter;stroke-miterlimit:4;stroke-dasharray:none;stroke-dashoffset:0;stroke-opacity:1;paint-order:markers fill stroke;stop-color:#000000;stop-opacity:1"
       d="m 51.58208,90.793559 v -48.6196"
       id="path471"
       sodipodi:nodetypes="cc" />
    <rect
       style="font-variation-settings:normal;opacity:1;fill:#ffffff;fill-opacity:1;stroke:none;stroke-width:6.30924787;stroke-linecap:butt;stroke-linejoin:miter;stroke-miterlimit:4;stroke-dasharray:none;stroke-dashoffset:0;stroke-opacity:1;paint-order:markers fill stroke;stop-color:#000000;stop-opacity:1"
       id="rect1256"
       width="42.370449"
       height="47.991673"
       x="144.32457"
       y="29.38616" />
    <path
       style="fill:#ffffff;stroke:#000000;stroke-width:5.04130363;stroke-linecap:butt;stroke-linejoin:miter;stroke-dasharray:none;stroke-opacity:1"
       d="m 208.04122,120.48973 c -5.22346,2.71809 -12.56338,2.90214 -18.8501,1.78234 -7.34834,-1.30889 -6.06076,-15.2814 -6.06076,-15.2814 0,0 -17.50365,0.90292 -20.32147,-3.18948 -2.06351,-2.86896 -1.50575,-13.094131 -1.50575,-13.094131 0,0 -10.30197,0.8756 -12.9404,-0.80524 -4.7493,-3.02559 -3.579,-21.756884 -3.82156,-28.63261 0.0575,-6.604713 0.44714,-12.580691 0.0415,-19.181749"
       id="path1258"
       sodipodi:nodetypes="cscccscc" />
    <path
       style="font-variation-settings:normal;opacity:1;fill:none;fill-opacity:1;stroke:#000000;stroke-width:5.04130363;stroke-linecap:butt;stroke-linejoin:miter;stroke-miterlimit:4;stroke-dasharray:none;stroke-dashoffset:0;stroke-opacity:1;paint-order:markers fill stroke;stop-color:#000000;stop-opacity:1"
       d="M 183.15732,106.96291 V 42.059701"
       id="path1198"
       sodipodi:nodetypes="cc" />
    <path
       style="font-variation-settings:normal;opacity:1;fill:none;fill-opacity:1;stroke:#000000;stroke-width:5.04130363;stroke-linecap:butt;stroke-linejoin:miter;stroke-miterlimit:4;stroke-dasharray:none;stroke-dashoffset:0;stroke-opacity:1;paint-order:markers fill stroke;stop-color:#000000;stop-opacity:1"
       d="M 161.33011,90.679299 V 42.059701"
       id="path1200"
       sodipodi:nodetypes="cc" />
    <path
       style="font-variation-settings:normal;opacity:1;fill:#ffffff;fill-opacity:1;stroke:#000000;stroke-width:5.04130363;stroke-linecap:butt;stroke-linejoin:miter;stroke-miterlimit:4;stroke-dasharray:none;stroke-dashoffset:0;stroke-opacity:1;paint-order:markers fill stroke;stop-color:#000000;stop-opacity:1"
       id="path1312"
       sodipodi:type="arc"
       sodipodi:cx="77.911324"
       sodipodi:cy="42.025234"
       sodipodi:rx="9.3894434"
       sodipodi:ry="9.3894434"
       sodipodi:start="0"
       sodipodi:end="3.1415927"
       sodipodi:arc-type="arc"
       d="m 87.300767,42.025234 a 9.3894434,9.3894434 0 0 1 -4.694722,8.131497 9.3894434,9.3894434 0 0 1 -9.389443,0 9.3894434,9.3894434 0 0 1 -4.694722,-8.131497"
       sodipodi:open="true" />
    <path
       style="font-variation-settings:normal;opacity:1;fill:#ffffff;fill-opacity:1;stroke:#000000;stroke-width:5.04130363;stroke-linecap:butt;stroke-linejoin:miter;stroke-miterlimit:4;stroke-dasharray:none;stroke-dashoffset:0;stroke-opacity:1;paint-order:markers fill stroke;stop-color:#000000;stop-opacity:1"
       id="path1340"
       sodipodi:type="arc"
       sodipodi:cx="96.738174"
       sodipodi:cy="42.025234"
       sodipodi:rx="9.3894434"
       sodipodi:ry="9.3894434"
       sodipodi:start="0"
       sodipodi:end="3.1415927"
       sodipodi:arc-type="arc"
       d="m 106.12762,42.025234 a 9.3894434,9.3894434 0 0 1 -4.69472,8.131497 9.3894434,9.3894434 0 0 1 -9.389448,0 9.3894434,9.3894434 0 0 1 -4.694721,-8.131497"
       sodipodi:open="true" />
    <path
       style="font-variation-settings:normal;opacity:1;fill:#ffffff;fill-opacity:1;stroke:#000000;stroke-width:5.04130363;stroke-linecap:butt;stroke-linejoin:miter;stroke-miterlimit:4;stroke-dasharray:none;stroke-dashoffset:0;stroke-opacity:1;paint-order:markers fill stroke;stop-color:#000000;stop-opacity:1"
       id="path1342"
       sodipodi:type="arc"
       sodipodi:cx="115.55198"
       sodipodi:cy="42.025234"
       sodipodi:rx="9.3894434"
       sodipodi:ry="9.3894434"
       sodipodi:start="0"
       sodipodi:end="3.1415927"
       sodipodi:arc-type="arc"
       d="m 124.94142,42.025234 a 9.3894434,9.3894434 0 0 1 -4.69472,8.131497 9.3894434,9.3894434 0 0 1 -9.38944,0 9.3894434,9.3894434 0 0 1 -4.69472,-8.131497"
       sodipodi:open="true" />
    <path
       style="font-variation-settings:normal;opacity:1;fill:#ffffff;fill-opacity:1;stroke:#000000;stroke-width:5.04130363;stroke-linecap:butt;stroke-linejoin:miter;stroke-miterlimit:4;stroke-dasharray:none;stroke-dashoffset:0;stroke-opacity:1;paint-order:markers fill stroke;stop-color:#000000;stop-opacity:1"
       id="path1344"
       sodipodi:type="arc"
       sodipodi:cx="134.51712"
       sodipodi:cy="42.025234"
       sodipodi:rx="9.3894434"
       sodipodi:ry="9.3894434"
       sodipodi:start="0"
       sodipodi:end="3.1415927"
       sodipodi:arc-type="arc"
       d="m 143.90656,42.025234 a 9.3894434,9.3894434 0 0 1 -4.69472,8.131497 9.3894434,9.3894434 0 0 1 -9.38944,0 9.3894434,9.3894434 0 0 1 -4.69472,-8.131497"
       sodipodi:open="true" />
    <path
       style="font-variation-settings:normal;opacity:1;fill:#000000;fill-opacity:1;stroke:none;stroke-width:1.63542;stroke-linecap:butt;stroke-linejoin:miter;stroke-miterlimit:4;stroke-dasharray:none;stroke-dashoffset:0;stroke-opacity:1;paint-order:markers fill stroke;stop-color:#000000;stop-opacity:1"
       d="m 53.012959,232.06681 c -1.587505,-0.0721 -3.317428,-0.35669 -4.677832,-0.76966 -0.702163,-0.21316 -2.059963,-0.78579 -2.059963,-0.86875 0,-0.0434 1.159198,-2.31085 1.273684,-2.49139 0.0538,-0.0848 0.180368,-0.0601 0.566098,0.11043 1.78611,0.7899 4.586409,1.17598 7.211692,0.99427 1.869189,-0.12938 3.012134,-0.31894 3.450135,-0.57219 0.68954,-0.3987 1.245256,-1.45758 1.574245,-2.99962 0.233449,-1.09424 0.321086,-3.57648 0.180222,-5.10473 -0.06733,-0.73049 -0.07067,-1.08145 -0.01049,-1.10151 0.06019,-0.0201 0.08833,-6.06956 0.08833,-18.99111 v -18.96167 h 1.502055 1.502056 v 19.05465 19.05466 l 1.266019,-0.001 c 4.020686,-0.004 7.704497,-0.59609 8.368253,-1.34451 0.206274,-0.23259 0.454743,-1.25873 0.578187,-2.38785 0.08691,-0.79499 0.106157,-2.78647 0.05639,-5.83656 -0.0046,-0.28324 4.84e-4,-6.82041 0.01128,-14.52703 L 73.913,181.31121 h 1.502055 1.502056 v 14.13025 14.13024 l 2.210169,-0.0487 c 3.16984,-0.0699 3.404807,-0.13345 3.840537,-1.03937 0.336228,-0.69905 0.576896,-1.64257 0.767966,-3.01077 0.338234,-2.42199 0.348282,-2.81615 0.348282,-13.66148 0,-5.81435 0.01931,-10.58445 0.04291,-10.60023 0.0236,-0.0158 0.742653,-0.0174 1.597889,-0.004 l 1.554972,0.0251 0.04442,0.55335 c 0.115467,1.43849 1.29423,2.88053 2.769524,3.38811 2.326067,0.80029 4.879437,-0.53894 5.488915,-2.87888 0.07237,-0.27783 0.131573,-0.6331 0.131573,-0.7895 v -0.28436 l 1.523514,0.0234 1.523515,0.0234 0.05316,0.49471 c 0.24399,2.27057 2.495893,3.9617 4.800403,3.60499 0.88753,-0.13737 1.79192,-0.59674 2.40166,-1.21987 0.70044,-0.71584 1.19076,-1.79869 1.19711,-2.64379 l 0.002,-0.27895 h 1.48851 1.48852 l 0.13735,0.69714 c 0.18974,0.96312 0.50282,1.55904 1.17094,2.22875 2.44724,2.45308 6.61979,1.10268 7.1582,-2.31667 l 0.0959,-0.60922 h 1.52071 1.52072 l 0.0547,0.4077 c 0.34582,2.58077 2.70601,4.24991 5.18363,3.66589 1.65336,-0.38973 2.9473,-1.78548 3.21166,-3.46437 l 0.0959,-0.60922 h 1.56188 c 0.85902,0 1.61868,-0.0218 1.68812,-0.0484 0.20483,-0.0786 0.26726,2.58529 0.17914,7.64456 -0.10263,5.89225 -0.0187,13.52675 0.16866,15.33402 0.23775,2.29384 0.64099,3.98737 1.12279,4.7154 0.15865,0.23974 0.29771,0.3349 0.60102,0.41127 0.71123,0.17909 2.12352,0.27438 3.69566,0.24936 l 1.54497,-0.0246 0.0217,-14.14079 0.0217,-14.14078 h 1.50129 1.50129 l 0.022,14.09787 c 0.0121,7.75383 -0.0134,14.88966 -0.0567,15.85742 -0.12017,2.68898 0.0957,5.4806 0.50843,6.57525 0.16934,0.44915 0.67166,0.73635 1.77895,1.01713 1.46213,0.37077 4.38862,0.64653 6.86797,0.64717 l 1.18018,3.2e-4 v -19.09763 -19.09756 h 1.50206 1.50205 v 19.00458 c 0,10.56593 0.0329,19.01729 0.074,19.0332 0.0407,0.0158 0.0178,0.66591 -0.0511,1.44483 -0.24371,2.76011 0.16615,5.65863 0.97678,6.90778 0.53308,0.82148 0.84285,1.00102 2.06112,1.19462 3.49509,0.55541 7.06263,0.24065 9.58715,-0.84589 0.18212,-0.0784 0.33995,-0.13061 0.35071,-0.11604 0.0991,0.13415 1.34191,2.57959 1.32051,2.59841 -0.26537,0.23346 -2.10031,0.89044 -3.20402,1.14718 -2.84915,0.66274 -7.78891,0.58564 -9.95648,-0.1554 -2.41441,-0.82541 -3.90309,-3.62619 -4.15004,-7.80777 -0.0363,-0.61397 -0.0829,-1.13128 -0.10373,-1.14958 -0.0208,-0.0183 -0.95515,-0.0594 -2.07633,-0.0913 l -2.0385,-0.058 v 3.73711 3.73711 H 108.46029 66.874792 v -3.74535 -3.74535 l -0.398223,0.0546 c -0.219022,0.03 -0.946917,0.0546 -1.617545,0.0546 h -1.219323 l -0.05459,1.09436 c -0.154382,3.09523 -1.003254,5.48194 -2.441099,6.86349 -0.583776,0.56091 -1.626689,1.09439 -2.485516,1.2714 -1.361501,0.28063 -4.119652,0.48253 -5.645544,0.41327 z m 94.028711,-7.6623 v -2.3972 l -0.49353,-0.0976 c -2.46546,-0.48758 -3.92113,-1.25907 -4.61633,-2.44661 -0.29446,-0.50302 -0.60558,-1.52635 -0.76074,-2.50226 -0.12638,-0.79495 -0.30691,-3.17374 -0.3084,-4.06387 l -6.1e-4,-0.38624 -1.39489,0.0269 c -2.49412,0.0481 -4.48623,-0.2141 -5.48995,-0.72273 -1.54706,-0.78406 -2.51535,-3.00282 -2.93625,-6.72865 -0.27155,-2.40379 -0.32625,-4.54217 -0.29498,-11.53236 l 0.0308,-6.88952 -0.50517,0.37188 c -2.04575,1.506 -4.84844,1.78197 -7.16335,0.70534 -0.91639,-0.42621 -1.6468,-0.94944 -2.29979,-1.64748 l -0.51868,-0.55448 -0.62559,0.64119 c -1.03222,1.05794 -2.32911,1.78379 -3.73633,2.09116 -0.80563,0.17597 -2.35872,0.13454 -3.17577,-0.0847 -1.35301,-0.36308 -2.57014,-1.07863 -3.50392,-2.05997 l -0.49981,-0.52525 -0.57309,0.5899 c -0.98259,1.01142 -2.3617,1.77668 -3.74887,2.08024 -0.79315,0.17357 -2.35497,0.13113 -3.17577,-0.0863 -1.354071,-0.35869 -2.652995,-1.13308 -3.553799,-2.11871 l -0.433484,-0.4743 -0.624227,0.62861 c -0.987344,0.99429 -2.044683,1.60705 -3.405747,1.97375 -0.927379,0.24985 -2.534609,0.24602 -3.484203,-0.008 -0.764531,-0.20476 -1.735392,-0.63902 -2.305344,-1.03116 l -0.375138,-0.2581 0.04197,6.28331 c 0.05473,8.19298 -0.08116,11.22177 -0.625004,13.93106 -0.499815,2.48993 -1.408018,4.09491 -2.686136,4.74696 -0.890662,0.45438 -2.708895,0.69446 -5.260438,0.69457 l -1.59693,7e-5 -0.05,1.69518 c -0.07036,2.38538 -0.375965,4.05375 -0.934508,5.10168 -0.538301,1.00995 -1.668919,1.77204 -3.331909,2.24585 -0.737553,0.21014 -2.180233,0.48462 -2.547163,0.48462 h -0.19942 v 2.36037 2.36038 h 38.58138 38.58139 z"
       id="path1415" />
    <g
       id="g1509"
       transform="translate(-0.246497)"
       style="fill:none">
      <path
         id="rect1469"
         style="opacity:1;vector-effect:none;fill:none;stroke:#000000;stroke-width:2.965;paint-order:markers fill stroke;stop-color:#000000;stop-opacity:1"
         d="m 35.60595,250.59545 v -7.62887 h 24.899279 v 7.62887"
         sodipodi:nodetypes="cccc" />
      <path
         id="path1482"
         style="opacity:1;vector-effect:none;fill:none;stroke:#000000;stroke-width:2.965;paint-order:markers fill stroke;stop-color:#000000;stop-opacity:1"
         d="m 66.326369,250.59545 v -7.62887 h 24.89928 v 7.62887"
         sodipodi:nodetypes="cccc" />
      <path
         id="path1484"
         style="opacity:1;vector-effect:none;fill:none;stroke:#000000;stroke-width:2.965;paint-order:markers fill stroke;stop-color:#000000;stop-opacity:1"
         d="m 97.046789,250.59545 v -7.62887 h 24.899281 v 7.62887"
         sodipodi:nodetypes="cccc" />
      <path
         id="path1486"
         style="opacity:1;vector-effect:none;fill:none;stroke:#000000;stroke-width:2.965;paint-order:markers fill stroke;stop-color:#000000;stop-opacity:1"
         d="m 127.76721,250.59545 v -7.62887 h 24.89928 v 7.62887"
         sodipodi:nodetypes="cccc" />
      <path
         id="path1488"
         style="opacity:1;vector-effect:none;fill:none;stroke:#000000;stroke-width:2.965;paint-order:markers fill stroke;stop-color:#000000;stop-opacity:1"
         d="m 158.48763,250.59545 v -7.62887 h 24.89928 v 7.62887"
         sodipodi:nodetypes="cccc" />
    </g>
    <g
       id="g1502"
       style="fill:none">
      <path
         id="path1490"
         style="opacity:1;vector-effect:none;fill:none;stroke:#000000;stroke-width:2.965;paint-order:markers fill stroke;stop-color:#000000;stop-opacity:1"
         d="m 51.257406,262.4039 v -7.62887 h 24.89928 v 7.62887"
         sodipodi:nodetypes="cccc" />
      <path
         id="path1492"
         style="opacity:1;vector-effect:none;fill:none;stroke:#000000;stroke-width:2.965;paint-order:markers fill stroke;stop-color:#000000;stop-opacity:1"
         d="m 81.619331,262.4039 v -7.62887 h 24.899279 v 7.62887"
         sodipodi:nodetypes="cccc" />
      <path
         id="path1494"
         style="opacity:1;vector-effect:none;fill:none;stroke:#000000;stroke-width:2.965;paint-order:markers fill stroke;stop-color:#000000;stop-opacity:1"
         d="m 111.98126,262.4039 v -7.62887 h 24.89927 v 7.62887"
         sodipodi:nodetypes="cccc" />
      <path
         id="path1496"
         style="opacity:1;vector-effect:none;fill:none;stroke:#000000;stroke-width:2.965;paint-order:markers fill stroke;stop-color:#000000;stop-opacity:1"
         d="m 142.34318,262.4039 v -7.62887 h 24.89928 v 7.62887"
         sodipodi:nodetypes="cccc" />
    </g>
  </g>
</svg>
