<?xml version="1.0" encoding="UTF-8" standalone="no"?>
<svg
   width="28.648003mm"
   height="2.3236015mm"
   viewBox="0 0 28.648002 2.3236015"
   version="1.1"
   id="svg3805"
   inkscape:version="1.1.2 (b8e25be8, 2022-02-05)"
   sodipodi:docname="underlinered.svg"
   xmlns:inkscape="http://www.inkscape.org/namespaces/inkscape"
   xmlns:sodipodi="http://sodipodi.sourceforge.net/DTD/sodipodi-0.dtd"
   xmlns="http://www.w3.org/2000/svg"
   xmlns:svg="http://www.w3.org/2000/svg"
   xmlns:rdf="http://www.w3.org/1999/02/22-rdf-syntax-ns#"
   xmlns:cc="http://creativecommons.org/ns#"
   xmlns:dc="http://purl.org/dc/elements/1.1/">
  <defs
     id="defs3799" />
  <sodipodi:namedview
     id="base"
     pagecolor="#ffffff"
     bordercolor="#666666"
     borderopacity="1.0"
     inkscape:pageopacity="0.0"
     inkscape:pageshadow="2"
     inkscape:zoom="3.4451422"
     inkscape:cx="30.767961"
     inkscape:cy="56.02091"
     inkscape:document-units="mm"
     inkscape:current-layer="layer1"
     inkscape:document-rotation="0"
     showgrid="false"
     showborder="false"
     inkscape:window-width="1349"
     inkscape:window-height="772"
     inkscape:window-x="0"
     inkscape:window-y="0"
     inkscape:window-maximized="0"
     showguides="true"
     inkscape:guide-bbox="true"
     inkscape:snap-global="true"
     inkscape:pagecheckerboard="0"
     inkscape:lockguides="false"
     fit-margin-top="0"
     fit-margin-left="0"
     fit-margin-right="0"
     fit-margin-bottom="0"
     inkscape:showpageshadow="0"
     inkscape:deskcolor="#d1d1d1">
    <sodipodi:guide
       position="1152.8548,-1425.5542"
       orientation="1,0"
       id="guide974"
       inkscape:locked="false" />
    <sodipodi:guide
       position="664.04987,-406.71949"
       orientation="1,0"
       id="guide976"
       inkscape:locked="false" />
    <sodipodi:guide
       position="2740.7347,-1427.7132"
       orientation="0,-1"
       id="guide1128"
       inkscape:locked="false" />
    <sodipodi:guide
       position="1415.7088,-1175.01"
       orientation="0,-1"
       id="guide1660"
       inkscape:locked="false" />
    <sodipodi:guide
       position="2082.4787,268.73694"
       orientation="0,-1"
       id="guide1123"
       inkscape:locked="false" />
    <sodipodi:guide
       position="1231.8758,219.89914"
       orientation="0,-1"
       id="guide1125"
       inkscape:locked="false" />
    <sodipodi:guide
       position="1284.3978,207.62104"
       orientation="1,0"
       id="guide1392"
       inkscape:locked="false" />
    <sodipodi:guide
       position="1774.4748,199.08834"
       orientation="1,0"
       id="guide1396"
       inkscape:locked="false" />
    <sodipodi:guide
       position="1904.5327,144.93155"
       orientation="1,0"
       id="guide1420"
       inkscape:locked="false" />
    <sodipodi:guide
       position="2395.6615,109.64314"
       orientation="1,0"
       id="guide1422"
       inkscape:locked="false" />
    <sodipodi:guide
       position="1774.4748,-846.0805"
       orientation="1,0"
       id="guide1646"
       inkscape:locked="false" />
    <sodipodi:guide
       position="3015.3703,45.336147"
       orientation="1,0"
       id="guide1648"
       inkscape:locked="false" />
    <sodipodi:guide
       position="3145.5792,200.48554"
       orientation="1,0"
       id="guide1650"
       inkscape:locked="false" />
    <sodipodi:guide
       position="3636.2164,220.30814"
       orientation="1,0"
       id="guide1652"
       inkscape:locked="false" />
    <sodipodi:guide
       position="43.453174,-249.30296"
       orientation="1,0"
       id="guide17413"
       inkscape:locked="false" />
    <sodipodi:guide
       position="533.79527,170.37054"
       orientation="1,0"
       id="guide17415"
       inkscape:locked="false" />
    <sodipodi:guide
       position="674.12447,43.310947"
       orientation="1,0"
       id="guide36894"
       inkscape:locked="false" />
    <sodipodi:guide
       position="1142.645,146.64845"
       orientation="1,0"
       id="guide41208"
       inkscape:locked="false" />
    <sodipodi:guide
       position="1284.3978,134.15054"
       orientation="1,0"
       id="guide51387"
       inkscape:locked="false" />
    <sodipodi:guide
       position="1763.8033,133.31004"
       orientation="1,0"
       id="guide51389"
       inkscape:locked="false" />
    <sodipodi:guide
       position="1586.1441,-190.36896"
       orientation="1,0"
       id="guide74348"
       inkscape:locked="false" />
    <sodipodi:guide
       position="1514.3615,219.89924"
       orientation="0,-1"
       id="guide14836"
       inkscape:locked="false" />
    <sodipodi:guide
       position="1887.9402,107.85514"
       orientation="0,-1"
       id="guide10628"
       inkscape:locked="false" />
    <sodipodi:guide
       position="682.85567,100.13804"
       orientation="1,0"
       id="guide12564"
       inkscape:locked="false" />
    <sodipodi:guide
       position="1688.1153,-148.94876"
       orientation="0,-1"
       id="guide13567"
       inkscape:locked="false" />
    <sodipodi:guide
       position="1706.3721,-404.54457"
       orientation="0,-1"
       id="guide13673"
       inkscape:locked="false" />
    <sodipodi:guide
       position="2240.2857,-659.79723"
       orientation="0,-1"
       id="guide27889"
       inkscape:locked="false" />
    <sodipodi:guide
       position="2385.7231,-280.78926"
       orientation="1,0"
       id="guide28115"
       inkscape:locked="false" />
    <sodipodi:guide
       position="2616.6758,-912.48505"
       orientation="0,-1"
       id="guide28757"
       inkscape:locked="false" />
    <sodipodi:guide
       position="1996.573,45.545647"
       orientation="1,0"
       id="guide33584"
       inkscape:locked="false" />
    <sodipodi:guide
       position="2207.7343,-332.80397"
       orientation="1,0"
       id="guide33586"
       inkscape:locked="false" />
    <sodipodi:guide
       position="2528.6634,-62.521554"
       orientation="1,0"
       id="guide37062"
       inkscape:locked="false" />
    <sodipodi:guide
       position="1850.5744,172.91024"
       orientation="0,-1"
       id="guide101899"
       inkscape:locked="false" />
    <sodipodi:guide
       position="2284.4057,160.52254"
       orientation="1,0"
       id="guide218180"
       inkscape:locked="false" />
    <sodipodi:guide
       position="1986.2503,138.63794"
       orientation="1,0"
       id="guide390627"
       inkscape:locked="false" />
    <sodipodi:guide
       position="1774.4748,208.23364"
       orientation="0,-1"
       id="guide1507"
       inkscape:locked="false" />
    <sodipodi:guide
       position="1774.4748,-258.56136"
       orientation="0,-1"
       id="guide33011"
       inkscape:locked="false" />
    <sodipodi:guide
       position="1733.5986,-513.44193"
       orientation="0,-1"
       id="guide33013"
       inkscape:locked="false" />
    <sodipodi:guide
       position="1805.0522,-1021.0626"
       orientation="0,-1"
       id="guide33027"
       inkscape:locked="false" />
    <sodipodi:guide
       position="1152.8548,111.00344"
       orientation="1,0"
       id="guide1370"
       inkscape:locked="false" />
    <sodipodi:guide
       position="1833.2994,219.89924"
       orientation="0,-1"
       id="guide16745"
       inkscape:locked="false" />
    <sodipodi:guide
       position="1904.5327,107.85514"
       orientation="0,-1"
       id="guide14893"
       inkscape:locked="false" />
    <sodipodi:guide
       position="1917.7575,122.51014"
       orientation="1,0"
       id="guide44997"
       inkscape:locked="false" />
    <sodipodi:guide
       position="1284.3978,219.89924"
       orientation="0,-1"
       id="guide58045"
       inkscape:locked="false" />
    <sodipodi:guide
       position="2385.7231,-70.519352"
       orientation="1,0"
       id="guide103111"
       inkscape:locked="false" />
    <sodipodi:guide
       position="1917.7575,-80.496354"
       orientation="1,0"
       id="guide115144"
       inkscape:locked="false" />
    <sodipodi:guide
       position="1661.9683,147.37155"
       orientation="1,0"
       id="guide126318"
       inkscape:locked="false" />
    <sodipodi:guide
       position="1664.6141,147.37155"
       orientation="0,-1"
       id="guide126320"
       inkscape:locked="false" />
    <sodipodi:guide
       position="1703.402,80.374546"
       orientation="1,0"
       id="guide126322"
       inkscape:locked="false" />
    <sodipodi:guide
       position="1609.203,134.77814"
       orientation="0,-1"
       id="guide126324"
       inkscape:locked="false" />
    <sodipodi:guide
       position="1664.6141,160.52254"
       orientation="0,-1"
       id="guide126439"
       inkscape:locked="false" />
    <sodipodi:guide
       position="1152.8548,-703.23501"
       orientation="1,0"
       id="guide138732"
       inkscape:locked="false" />
    <sodipodi:guide
       position="2170.3362,-148.94876"
       orientation="1,0"
       id="guide214576"
       inkscape:locked="false" />
    <sodipodi:guide
       position="2807.6789,-148.94876"
       orientation="1,0"
       id="guide312218"
       inkscape:locked="false" />
    <sodipodi:guide
       position="2449.6749,134.77814"
       orientation="0,-1"
       id="guide7411"
       inkscape:locked="false" />
    <sodipodi:guide
       position="19.984653,-28.67364"
       orientation="0,-1"
       id="guide133700"
       inkscape:locked="false" />
    <sodipodi:guide
       position="-1.5172487e-06,-29.759763"
       orientation="1,0"
       id="guide133801"
       inkscape:locked="false" />
    <sodipodi:guide
       position="7.8200811,-60.388419"
       orientation="1,0"
       id="guide133803"
       inkscape:locked="false" />
    <sodipodi:guide
       position="4.800472,-21.579212"
       orientation="0,-1"
       id="guide133805"
       inkscape:locked="false" />
  </sodipodi:namedview>
  <metadata
     id="metadata3802">
    <rdf:RDF>
      <cc:Work
         rdf:about="">
        <dc:format>image/svg+xml</dc:format>
        <dc:type
           rdf:resource="http://purl.org/dc/dcmitype/StillImage" />
      </cc:Work>
    </rdf:RDF>
  </metadata>
  <g
     inkscape:label="Layer 1"
     inkscape:groupmode="layer"
     id="layer1"
     transform="translate(858.13092,75.822365)">
    <rect
       style="opacity:0.4;fill:#008033;fill-opacity:1;stroke:none;stroke-width:0.264999;stroke-linecap:square;stroke-linejoin:round;stroke-dasharray:0.1325, 0.1325;stroke-dashoffset:0.053"
       id="rect133879"
       width="28.648001"
       height="2.3236015"
       x="-858.13092"
       y="-75.822365" />
  </g>
</svg>
